{
  "AWSTemplateFormatVersion": "2010-09-09",

  "Description": "Jumphost to access private resources",

  "Parameters": {
    "Environment": {
      "AllowedValues": [ "Dev", "Prod" ],
      "Type": "String",
      "Default": "Dev"
    },
    "Ec2KeyPair": {
      "Description": "EC2 key pair for SSH access to this server (must be manually created prior to creating stack)",
      "Type": "AWS::EC2::KeyPair::KeyName"
    },
    "VpcStackName": {
      "Description": "Name of the stack containing the network and security group (type carefully)",
      "Type": "String"
    }
  },

  "Outputs": {
    "PublicIP": {
      "Value": { "Fn::GetAtt": [ "jumphost", "PublicIp" ] }
    }
  },

  "Mappings": {
    "RegionMap": {
      "us-east-1": { "AMI": "ami-5cc39523", "1": "us-east-1a", "2": "us-east-1c", "1s": "ue1a", "2s": "ue1c" },
      "us-east-2": { "AMI": "ami-67142d02", "1": "us-east-2a", "2": "us-east-2b", "1s": "ue2a", "2s": "ue2b" },
      "us-west-2": { "AMI": "ami-39c28c41", "1": "us-west-2a", "2": "us-west-2b", "1s": "uw2a", "2s": "uw2b" }
    }
  },

  "Resources": {

    "InstanceRole" : {
      "Type": "AWS::IAM::Role",
      "Properties": {
        "AssumeRolePolicyDocument": {
          "Version" : "2012-10-17",
          "Statement": [ {
            "Action": [ "sts:AssumeRole" ],
            "Effect": "Allow",
            "Principal": { "Service": [ "ec2.amazonaws.com" ] }
          } ]
        },
        "Path": "/",
        "Policies" : []
      }
    },

    "InstanceProfile" : {
      "Type": "AWS::IAM::InstanceProfile",
      "Properties": {
        "Path": "/",
        "Roles": [ { "Ref" : "InstanceRole" } ]
      }
    },

    "jumphost" : {
      "Type" : "AWS::EC2::Instance",
      "Properties" : {
        "BlockDeviceMappings" : [
           { "DeviceName" : "/dev/sda1", "Ebs" : { "VolumeSize" : "8", "VolumeType" : "gp2", "DeleteOnTermination" : "true" } }
        ],
        "IamInstanceProfile" : { "Ref" : "InstanceProfile" },
        "ImageId" : { "Fn::FindInMap" : [ "RegionMap", { "Ref" : "AWS::Region" }, "AMI" ] },
        "InstanceType" : "t2.small",
        "KeyName" : { "Ref" : "Ec2KeyPair" },
        "Tags" : [ { "Key" : "Name", "Value" : { "Fn::Join" : [ "-", [ { "Ref" : "Environment" }, "vpn", { "Ref" : "AWS::StackName" } ] ] } } ],
        "Tenancy" : "default",
        "NetworkInterfaces" : [
          {
            "GroupSet" : [
              { "Fn::ImportValue": { "Fn::Sub": "${VpcStackName}-${Environment}SecurityGroup" } },
              { "Fn::ImportValue": { "Fn::Sub": "${VpcStackName}-AdminSshSecurityGroup" } }
            ],
            "AssociatePublicIpAddress" : true,
            "DeleteOnTermination" : true,
            "DeviceIndex" : 0,
            "SubnetId" : { "Fn::ImportValue": { "Fn::Sub": "${VpcStackName}-PubSub1" } }
          }
        ],
        "UserData" : { "Fn::Base64" : { "Fn::Join" : [ "", [
          "#!/bin/bash -vux\n\n",
          "NAME=", { "Fn::Join" : [ "-", [ { "Ref" : "Environment" }, "vpn", { "Ref" : "AWS::StackName" } ] ] }, "\n",
          "echo $(curl http://169.254.169.254/latest/meta-data/local-ipv4) $NAME >> /etc/hosts\n",
          "hostnamectl set-hostname $NAME\n",
          "while lsof /var/lib/apt/lists/lock || lsof /var/cache/apt/archives/lock || lsof /var/lib/dpkg/lock; do echo waiting for other apt process to stop; sleep 10; done\n",
          "apt update\n",
          "DEBIAN_FRONTEND=noninteractive apt upgrade -y\n",
          "reboot\n"
        ] ] } }
      }
    }

  }
}
